﻿[
  {
    "name": "User1",
    "balance": 500,
    "email": "User1@test.com"
  },
  {
    "name": "User2",
    "balance": 500,
    "email": "User2@test.com"
  },
  {
    "name": "Antonia Scott",
    "balance": 2152,
    "email": "antoniascott@capscreen.com"
  },
  {
    "name": "Lorraine Rosa",
    "balance": 1639.3,
    "email": "lorrainerosa@capscreen.com"
  },
  {
    "name": "Baird Larson",
    "balance": 2928.5,
    "email": "bairdlarson@capscreen.com"
  },
  {
    "name": "Eva Dale",
    "balance": 526.43,
    "email": "evadale@capscreen.com"
  },
  {
    "name": "Serrano Slater",
    "balance": 2937.91,
    "email": "serranoslater@capscreen.com"
  },
  {
    "name": "Hays Warner",
    "balance": 3024.91,
    "email": "hayswarner@capscreen.com"
  },
  {
    "name": "Elisabeth Holder",
    "balance": 696.35,
    "email": "elisabethholder@capscreen.com"
  },
  {
    "name": "Jeanette Park",
    "balance": 464.84,
    "email": "jeanettepark@capscreen.com"
  },
  {
    "name": "Gale Bond",
    "balance": 1715.63,
    "email": "galebond@capscreen.com"
  },
  {
    "name": "Sheri Dotson",
    "balance": 1368.86,
    "email": "sheridotson@capscreen.com"
  },
  {
    "name": "Raquel Norris",
    "balance": 3228.65,
    "email": "raquelnorris@capscreen.com"
  },
  {
    "name": "Owen Flowers",
    "balance": 861.9,
    "email": "owenflowers@capscreen.com"
  },
  {
    "name": "Theresa Curtis",
    "balance": 1964.46,
    "email": "theresacurtis@capscreen.com"
  },
  {
    "name": "Mills Murphy",
    "balance": 2399.49,
    "email": "millsmurphy@capscreen.com"
  },
  {
    "name": "Guthrie Gonzalez",
    "balance": 1651.13,
    "email": "guthriegonzalez@capscreen.com"
  },
  {
    "name": "Naomi Crawford",
    "balance": 1986.24,
    "email": "naomicrawford@capscreen.com"
  },
  {
    "name": "Gloria Cross",
    "balance": 3870.84,
    "email": "gloriacross@capscreen.com"
  },
  {
    "name": "Craig Flynn",
    "balance": 379.89,
    "email": "craigflynn@capscreen.com"
  },
  {
    "name": "Cantrell Shields",
    "balance": 2355.97,
    "email": "cantrellshields@capscreen.com"
  },
  {
    "name": "Mai Wilkins",
    "balance": 2359.29,
    "email": "maiwilkins@capscreen.com"
  },
  {
    "name": "Savannah Ramos",
    "balance": 1760.77,
    "email": "savannahramos@capscreen.com"
  },
  {
    "name": "Hooper Melton",
    "balance": 3293.53,
    "email": "hoopermelton@capscreen.com"
  },
  {
    "name": "Martin Estes",
    "balance": 2192.14,
    "email": "martinestes@capscreen.com"
  },
  {
    "name": "Natalie Foreman",
    "balance": 1217.06,
    "email": "natalieforeman@capscreen.com"
  },
  {
    "name": "Mccarthy Bryan",
    "balance": 2938.93,
    "email": "mccarthybryan@capscreen.com"
  },
  {
    "name": "Clara Velazquez",
    "balance": 724.75,
    "email": "claravelazquez@capscreen.com"
  },
  {
    "name": "Lupe Robertson",
    "balance": 1468.42,
    "email": "luperobertson@capscreen.com"
  },
  {
    "name": "England Valdez",
    "balance": 3514.97,
    "email": "englandvaldez@capscreen.com"
  },
  {
    "name": "Bush Hatfield",
    "balance": 902,
    "email": "bushhatfield@capscreen.com"
  },
  {
    "name": "Penny Velasquez",
    "balance": 3231.87,
    "email": "pennyvelasquez@capscreen.com"
  },
  {
    "name": "Morrow Lawrence",
    "balance": 3888.06,
    "email": "morrowlawrence@capscreen.com"
  },
  {
    "name": "Laurel Contreras",
    "balance": 784.02,
    "email": "laurelcontreras@capscreen.com"
  },
  {
    "name": "Latasha Washington",
    "balance": 353.86,
    "email": "latashawashington@capscreen.com"
  },
  {
    "name": "Brewer Haynes",
    "balance": 595.61,
    "email": "brewerhaynes@capscreen.com"
  },
  {
    "name": "Noelle Vasquez",
    "balance": 3126.17,
    "email": "noellevasquez@capscreen.com"
  },
  {
    "name": "Frank Gray",
    "balance": 2503.54,
    "email": "frankgray@capscreen.com"
  },
  {
    "name": "Noble Green",
    "balance": 2589.43,
    "email": "noblegreen@capscreen.com"
  },
  {
    "name": "Camacho Whitaker",
    "balance": 507.43,
    "email": "camachowhitaker@capscreen.com"
  }
]